# Discretization File created on 7/23/2022 by ModelMuse version 4.3.0.0.
# Simplest model for reference of building the binary-file-converting program
# Upper left corner: (0, 0)
# Lower left corner: (0, -200)
# Upper right corner: (1000, 0)
# Lower right corner: (1000, -200)
# Grid angle (in degrees counterclockwise): 0
     2     2    10     3     1     2 # NLAY, NROW, NCOL, NPER, ITMUNI, LENUNI
     0     0 # LAYCB
CONSTANT     1.000000000000E+002  # DELR
CONSTANT     1.000000000000E+002  # DELC
INTERNAL 1.0 (FREE)       12 # TOP
  3.900000000000E+001   3.800000000000E+001   3.700000000000E+001   3.600000000000E+001   3.500000000000E+001   3.400000000000E+001   3.300000000000E+001   3.200000000000E+001   3.100000000000E+001   3.000000000000E+001 
  3.900000000000E+001   3.800000000000E+001   3.700000000000E+001   3.600000000000E+001   3.500000000000E+001   3.400000000000E+001   3.300000000000E+001   3.200000000000E+001   3.100000000000E+001   3.000000000000E+001 
INTERNAL 1.0 (FREE)       12 # BOTM, Upper Aquifer
  1.900000000000E+001   1.800000000000E+001   1.700000000000E+001   1.600000000000E+001   1.500000000000E+001   1.400000000000E+001   1.300000000000E+001   1.200000000000E+001   1.100000000000E+001   1.000000000000E+001 
  1.900000000000E+001   1.800000000000E+001   1.700000000000E+001   1.600000000000E+001   1.500000000000E+001   1.400000000000E+001   1.300000000000E+001   1.200000000000E+001   1.100000000000E+001   1.000000000000E+001 
INTERNAL 1.0 (FREE)       12 # BOTM, Lower Aquifer
  9.000000000000E+000   8.000000000000E+000   7.000000000000E+000   6.000000000000E+000   5.000000000000E+000   4.000000000000E+000   3.000000000000E+000   2.000000000000E+000   1.000000000000E+000   0.000000000000E+000 
  9.000000000000E+000   8.000000000000E+000   7.000000000000E+000   6.000000000000E+000   5.000000000000E+000   4.000000000000E+000   3.000000000000E+000   2.000000000000E+000   1.000000000000E+000   0.000000000000E+000 
  1.000000000000E+000      1  1.000000000000E+000  SS # PERLEN NSTP TSMULT Ss/tr (Stress period 1)
  5.000000000000E+008      5  1.000000000000E+000  TR # PERLEN NSTP TSMULT Ss/tr (Stress period 2)
  1.000000000000E+009     10  1.000000000000E+000  TR # PERLEN NSTP TSMULT Ss/tr (Stress period 3)
